todo_id,status,title,detail,memo
1,1,母子手帳,出産後は忙しいので必要な項目は事前に記入しておきましょう,
2,1,診察券,病院の診察券は必ず持参しましょう,
3,1,保険証,忘れないようにしましょう,
4,1,出産費用,入院が早まったり予想外の出費があるので多めに用意しましょう,
5,1,入院テキスト,病院で配布された入院のテキストや提出する書類は事前に確認し記入しておきましょう,
6,1,産じゅくショーツ,病院で用意がある場合がありますが、入院時は自分で購入したものを履いていきましょう,
7,1,授乳ブラジャ,前にボタンがついていて外せるタイプが便利です,
8,1,普通のブラ,面会時や退院時にあると便利です,
9,1,パジャマ,病院で用意がない場合持参しましょう,
10,1,退院時の着替え,面会時や退院時用に用意しましょう。入院時の服でも大丈夫です,
11,1,骨盤ベルト,出産直後から使えるので事前に用意しておきましょう,
12,1,スリッパ,病院で用意がない場合用意しましょう,
13,1,お産シート,破水した場合、車やタクシーの座席を汚さないように用意しましょう,
14,1,お産パット,出産後悪露の為に必要です。薬局に売ってなかったりするので子供用品の店か、夜用のナプキンを購入しましょう。トイレの度に交換するので多めにあった方がよいです,
15,1,母乳パット,母乳が出るようになったら漏れるので必要です,
16,1,腕時計,陣痛時の間隔を計ったり時間を確認したりあると何かと便利です,
17,1,保存食,陣痛時にすぐに食べれるものや入院中の間食用に用意しましょう,
18,1,ペットボトル用ストロー,陣痛中の水分補給時にあると便利です,
19,1,充電器,携帯やスマホの充電器を忘れないようにしましょう,
20,1,化粧品,面会時や退院時の為に用意しましょう,
21,1,タオル,病院で用意がない場合、2、3枚用意しましょう,
22,1,歯ブラシ,病院で用意がない場合、用意しましょう,
23,1,シャンプー,入院期間分用意しましょう。トラベル用で充分です,
24,1,ボディソープ,入院期間分用意しましょう。トラベル用で充分です,
25,1,ボディタオル,忘れがちですが用意しましょう,
26,1,洗濯洗剤,タオルやパンツを洗う際に必要です。忘れず用意しましょう,
27,1,赤ちゃん退院用服,退院時に必要です。病院で用意がない場合、用意しましょう,
28,1,おくるみ,退院時にくるんで抱っこして移動するときに必要です,
29,1,ガーゼ,よだれを拭いたりあると何かと便利です,
30,1,ミトン,顔を掻いて傷がつくような場合に必要です,
31,1,ティッシュ,あると何かと便利です,
